esm244_lab2
…
Any notable outliers or additional patterns? No noted.

1.2 Use filter_index() to filter by date-times!

We can use filter_index() specifically to help us filter data by time spans. See ?filter_index() for more information.

1.2.1 Example 1: Filter from December 2010 through January 2011

Code

toolik_ts %>% 
  filter_index("2010-12" ~ "2011-01")

# A tsibble: 62 x 5 [1D]
   date       daily_air_temp daily_precip mean_barom mean_windspeed
   <date>              <dbl>        <dbl>      <dbl>          <dbl>
 1 2010-12-01          -21.8          0.5       928.           4.23
 2 2010-12-02          -23.4          0.3       927.           2.36
 3 2010-12-03          -17.9          0.2       921.           2.63
 4 2010-12-04          -24.0          1.7       919.           3.70
 5 2010-12-05          -31.7          0         936.           2.39
 6 2010-12-06          -23.5          0         940.           3.07
 7 2010-12-07          -21.3          0         936.           3.50
 8 2010-12-08          -22.1          0         932.           3.77
 9 2010-12-09          -18.7          2.2       930.           3.35
10 2010-12-10          -26.0          0.4       929.           3.37
# ℹ 52 more rows

1.2.2 Example 2: Filter from April 10, 2006 to May 15, 2006

Code

toolik_ts %>% 
  filter_index("2006-04-10" ~ "2006-05-15")

# A tsibble: 36 x 5 [1D]
   date       daily_air_temp daily_precip mean_barom mean_windspeed
   <date>              <dbl>        <dbl>      <dbl>          <dbl>
 1 2006-04-10          -18.6           NA         NA             NA
 2 2006-04-11          -13.6           NA         NA             NA
 3 2006-04-12          -22.5           NA         NA             NA
 4 2006-04-13          -24.0           NA         NA             NA
 5 2006-04-14          -24.6           NA         NA             NA
 6 2006-04-15          -22.2           NA         NA             NA
 7 2006-04-16          -19.6           NA         NA             NA
 8 2006-04-17          -25.0           NA         NA             NA
 9 2006-04-18          -21.9           NA         NA             NA
10 2006-04-19          -26.2           NA         NA             NA
# ℹ 26 more rows

1.2.3 Example 3: Filter from December 20, 2020 to the end of the dataset

Code

toolik_ts %>% 
  filter_index("2020-12-20" ~ .)

# A tsibble: 742 x 5 [1D]
   date       daily_air_temp daily_precip mean_barom mean_windspeed
   <date>              <dbl>        <dbl>      <dbl>          <dbl>
 1 2020-12-20         -39.0           0         909.          0.652
 2 2020-12-21         -26.2           0.2       912.          2.25 
 3 2020-12-22          -7.97          1.5       908.          6.33 
 4 2020-12-23          -6.79          2.2       901.          2.49 
 5 2020-12-24          -7.44          0.7       913.          4.51 
 6 2020-12-25          -8.26          0         918.          3.01 
 7 2020-12-26         -21.4           0.1       917.          1.59 
 8 2020-12-27         -20.4           0         916.          1.11 
 9 2020-12-28         -15.0           0.3       916.          1.20 
10 2020-12-29         -16.0           0.1       920.          1.22 
# ℹ 732 more rows
…
